…
    ##    user  system elapsed 
    ##   74.97    0.12   75.17

``` r
colnames(allErrors) = allNeighbors
rownames(allErrors) = allAngles
allErrorsLong = allErrors %>% 
  mutate(NumAngles=rownames(.)) %>% 
  pivot_longer(cols = !NumAngles, names_to = "NumNeighbors", values_to = "RMSE") %>% 
  mutate_if(is.character, as.integer)
allErrorsLong
```

    ## # A tibble: 40 x 3
    ##    NumAngles NumNeighbors  RMSE
    ##        <int>        <int> <dbl>
    ##  1         2            1 1884 
    ##  2         2            2 1602.
    ##  3         2            3 1415.
    ##  4         2            4 1386.
    ##  5         2            5 1247.
    ##  6         2            6 1314.
    ##  7         2            7 1230.
    ##  8         2            8 1226.
    ##  9         2            9 1250.
    ## 10         2           10 1241.
    ## # ... with 30 more rows
…
    ##    user  system elapsed 
    ##   66.95    0.49   67.59

``` r
colnames(allErrors) = allNeighbors
rownames(allErrors) = allAngles
allErrorsLong = allErrors %>% 
  mutate(NumAngles=rownames(.)) %>% 
  pivot_longer(cols = !NumAngles, names_to = "NumNeighbors", values_to = "RMSE") %>% 
  mutate_if(is.character, as.integer)
allErrorsLong
```

    ## # A tibble: 40 x 3
    ##    NumAngles NumNeighbors  RMSE
    ##        <int>        <int> <dbl>
    ##  1         2            1 1884 
    ##  2         2            2 1575.
    ##  3         2            3 1394.
    ##  4         2            4 1375.
    ##  5         2            5 1252.
    ##  6         2            6 1300.
    ##  7         2            7 1224.
    ##  8         2            8 1213.
    ##  9         2            9 1225.
    ## 10         2           10 1213.
    ## # ... with 30 more rows
…
